F:\uas-pbo-2019---try-catch\Src\prototype 0.4 revisi\uasmenu\src\main\java\MapGenerator\SwingWayPoint.java
F:\uas-pbo-2019---try-catch\Src\prototype 0.4 revisi\uasmenu\src\main\java\view\howto.java
F:\uas-pbo-2019---try-catch\Src\prototype 0.4 revisi\uasmenu\src\main\java\menu\ReadExcel.java
F:\uas-pbo-2019---try-catch\Src\prototype 0.4 revisi\uasmenu\src\main\java\model\FileChooserForWater.java
F:\uas-pbo-2019---try-catch\Src\prototype 0.4 revisi\uasmenu\src\main\java\menu\ReadCsv.java
F:\uas-pbo-2019---try-catch\Src\prototype 0.4 revisi\uasmenu\src\main\java\view\home.java
F:\uas-pbo-2019---try-catch\Src\prototype 0.4 revisi\uasmenu\src\main\java\menu\Program.java
F:\uas-pbo-2019---try-catch\Src\prototype 0.4 revisi\uasmenu\src\main\java\view\About.java
F:\uas-pbo-2019---try-catch\Src\prototype 0.4 revisi\uasmenu\src\main\java\menu\Dasboard.java
F:\uas-pbo-2019---try-catch\Src\prototype 0.4 revisi\uasmenu\src\main\java\menu\Jlist.java
F:\uas-pbo-2019---try-catch\Src\prototype 0.4 revisi\uasmenu\src\main\java\model\ReadXlsxToDb.java
F:\uas-pbo-2019---try-catch\Src\prototype 0.4 revisi\uasmenu\src\main\java\MapGenerator\Map.java
F:\uas-pbo-2019---try-catch\Src\prototype 0.4 revisi\uasmenu\src\main\java\menu\About.java
F:\uas-pbo-2019---try-catch\Src\prototype 0.4 revisi\uasmenu\src\main\java\main\Main.java
F:\uas-pbo-2019---try-catch\Src\prototype 0.4 revisi\uasmenu\src\main\java\MapGenerator\SwingWaypointOverlayPainter.java
F:\uas-pbo-2019---try-catch\Src\prototype 0.4 revisi\uasmenu\src\main\java\menu\Dashboard.java
F:\uas-pbo-2019---try-catch\Src\prototype 0.4 revisi\uasmenu\src\main\java\menu\Todo.java
F:\uas-pbo-2019---try-catch\Src\prototype 0.4 revisi\uasmenu\src\main\java\model\connector.java
F:\uas-pbo-2019---try-catch\Src\prototype 0.4 revisi\uasmenu\src\main\java\menu\FileChooser.java
F:\uas-pbo-2019---try-catch\Src\prototype 0.4 revisi\uasmenu\src\main\java\model\DBHelper.java
